<?xml version="1.0" encoding="utf-8"?>
<!-- Generator: Adobe Illustrator 23.1.0, SVG Export Plug-In . SVG Version: 6.00 Build 0)  -->
<svg version="1.1" id="Layer_1" xmlns="http://www.w3.org/2000/svg" xmlns:xlink="http://www.w3.org/1999/xlink" x="0px" y="0px"
	 viewBox="0 0 100 100" style="enable-background:new 0 0 100 100;" xml:space="preserve">
<title>text</title>
<path d="M96.8,0H3.1C1.5,0,0,1.3,0,3.1v31.2c0,1.6,1.3,3.1,3.1,3.1c1.6,0,3.1-1.3,3.1-3.1l0,0c0-5.1,4.2-9.3,9.4-9.4h21.9v59.4
	c0,5.1-4.2,9.3-9.4,9.4c-1.6,0-3.1,1.3-3.1,3.1s1.3,3.1,3.1,3.1h43.8H72c1.6,0,3.1-1.3,3.1-3.1s-1.3-3.1-3.1-3.1h-0.1
	c-5.1,0-9.3-4.2-9.4-9.4V24.9h21.9c5.1,0,9.3,4.2,9.4,9.4c0,1.6,1.3,3.1,3.1,3.1s3.1-1.3,3.1-3.1V3.1C99.8,1.3,98.5,0,96.8,0L96.8,0
	z"/>
</svg>
